DC-Build-Header: ruby-em-http-request 0.3.0-1 / 2013-12-27 03:21:06 +0000
DC-Task: source:ruby-em-http-request version:0.3.0-1 architecture:any chroot:unstable esttime:37 logfile:/tmp/ruby-em-http-request_0.3.0-1_unstable.log modes:
DC-Sbuild-call: su user -c 'sbuild -n -A -s --force-orig-source --apt-update -d unstable -v  ruby-em-http-request_0.3.0-1'
sbuild (Debian sbuild) 0.63.2 (18 Aug 2012) on ip-172-31-5-109.us-west-2.compute.internal

╔══════════════════════════════════════════════════════════════════════════════╗
║ ruby-em-http-request 0.3.0-1 (amd64)                       27 Dec 2013 03:21 ║
╚══════════════════════════════════════════════════════════════════════════════╝

Package: ruby-em-http-request
Version: 0.3.0-1
Source Version: 0.3.0-1
Distribution: unstable
Machine Architecture: amd64
Host Architecture: amd64
Build Architecture: amd64

I: NOTICE: Log filtering will replace 'build/ruby-em-http-request-UUBAoN/ruby-em-http-request-0.3.0' with '«PKGBUILDDIR»'
I: NOTICE: Log filtering will replace 'build/ruby-em-http-request-UUBAoN' with '«BUILDDIR»'
I: NOTICE: Log filtering will replace 'var/lib/schroot/mount/unstable-amd64-sbuild-feb781d9-8255-421a-9283-8933c4bfe4ae' with '«CHROOT»'

┌──────────────────────────────────────────────────────────────────────────────┐
│ Update chroot                                                                │
└──────────────────────────────────────────────────────────────────────────────┘

Get:1 http://localhost:9999 unstable InRelease [206 kB]
Get:2 http://localhost:9999 unstable/main Sources/DiffIndex [7876 B]
Get:3 http://localhost:9999 unstable/main amd64 Packages/DiffIndex [7876 B]
Get:4 http://localhost:9999 unstable/main Translation-en/DiffIndex [7876 B]
Get:5 http://localhost:9999 unstable/main 2013-12-26-1438.25.pdiff [3408 B]
Get:6 http://localhost:9999 unstable/main 2013-12-26-1438.25.pdiff [3408 B]
Get:7 http://localhost:9999 unstable/main amd64 2013-12-26-1438.25.pdiff [1433 B]
Get:8 http://localhost:9999 unstable/main 2013-12-26-1438.25.pdiff [1507 B]
Get:9 http://localhost:9999 unstable/main amd64 2013-12-26-1438.25.pdiff [1433 B]
Get:10 http://localhost:9999 unstable/main 2013-12-26-2039.36.pdiff [11.9 kB]
Get:11 http://localhost:9999 unstable/main 2013-12-26-1438.25.pdiff [1507 B]
Get:12 http://localhost:9999 unstable/main amd64 2013-12-26-2039.36.pdiff [16.6 kB]
Get:13 http://localhost:9999 unstable/main 2013-12-26-2039.36.pdiff [11.9 kB]
Get:14 http://localhost:9999 unstable/main 2013-12-26-2039.36.pdiff [2056 B]
Get:15 http://localhost:9999 unstable/main amd64 2013-12-26-2039.36.pdiff [16.6 kB]
Get:16 http://localhost:9999 unstable/main 2013-12-26-2039.36.pdiff [2056 B]
Fetched 266 kB in 9s (27.5 kB/s)
Reading package lists...
Reading package lists...
Building dependency tree...
Reading state information...
0 upgraded, 0 newly installed, 0 to remove and 0 not upgraded.

┌──────────────────────────────────────────────────────────────────────────────┐
│ Fetch source files                                                           │
└──────────────────────────────────────────────────────────────────────────────┘


Check APT
─────────

Checking available source versions...

Download source files with APT
──────────────────────────────

Reading package lists...
Building dependency tree...
Reading state information...
Need to get 46.6 kB of source archives.
Get:1 http://localhost:9999/debian/ unstable/main ruby-em-http-request 0.3.0-1 (dsc) [2046 B]
Get:2 http://localhost:9999/debian/ unstable/main ruby-em-http-request 0.3.0-1 (tar) [40.8 kB]
Get:3 http://localhost:9999/debian/ unstable/main ruby-em-http-request 0.3.0-1 (diff) [3741 B]
Fetched 46.6 kB in 0s (50.8 kB/s)
Download complete and in download only mode

Check arch
──────────

Merged Build-Depends: build-essential, fakeroot
Filtered Build-Depends: build-essential, fakeroot
dpkg-deb: building package `sbuild-build-depends-core-dummy' in `/«BUILDDIR»/resolver-2fi9Tw/apt_archive/sbuild-build-depends-core-dummy.deb'.
OK
Reading package lists...

┌──────────────────────────────────────────────────────────────────────────────┐
│ Install core build dependencies (apt-based resolver)                         │
└──────────────────────────────────────────────────────────────────────────────┘

Installing build dependencies
Reading package lists...
Building dependency tree...
Reading state information...
The following NEW packages will be installed:
  sbuild-build-depends-core-dummy
debconf: delaying package configuration, since apt-utils is not installed
0 upgraded, 1 newly installed, 0 to remove and 0 not upgraded.
Need to get 0 B/766 B of archives.
After this operation, 0 B of additional disk space will be used.
Selecting previously unselected package sbuild-build-depends-core-dummy.
(Reading database ... 13937 files and directories currently installed.)
Preparing to unpack .../sbuild-build-depends-core-dummy.deb ...
Unpacking sbuild-build-depends-core-dummy (0.invalid.0) ...
Setting up sbuild-build-depends-core-dummy (0.invalid.0) ...
Merged Build-Depends: base-files, base-passwd, bash, bsdutils, coreutils, dash, debianutils, diffutils, dpkg, e2fsprogs, findutils, grep, gzip, hostname, libc-bin, login, mount, ncurses-base, ncurses-bin, perl-base, sed, sysvinit, sysvinit-utils, tar, util-linux, libc6-dev | libc-dev, gcc (>= 4:4.4.3), g++ (>= 4:4.4.3), make, dpkg-dev (>= 1.13.5), debhelper (>= 7.0.50~), gem2deb (>= 0.2.13~), ruby-rspec, ruby-eventmachine, ruby-escape-utils, ruby-addressable, ruby-rack
Filtered Build-Depends: base-files, base-passwd, bash, bsdutils, coreutils, dash, debianutils, diffutils, dpkg, e2fsprogs, findutils, grep, gzip, hostname, libc-bin, login, mount, ncurses-base, ncurses-bin, perl-base, sed, sysvinit, sysvinit-utils, tar, util-linux, libc6-dev, gcc (>= 4:4.4.3), g++ (>= 4:4.4.3), make, dpkg-dev (>= 1.13.5), debhelper (>= 7.0.50~), gem2deb (>= 0.2.13~), ruby-rspec, ruby-eventmachine, ruby-escape-utils, ruby-addressable, ruby-rack
dpkg-deb: building package `sbuild-build-depends-ruby-em-http-request-dummy' in `/«BUILDDIR»/resolver-huX6XO/apt_archive/sbuild-build-depends-ruby-em-http-request-dummy.deb'.
OK
Reading package lists...

┌──────────────────────────────────────────────────────────────────────────────┐
│ Install ruby-em-http-request build dependencies (apt-based resolver)         │
└──────────────────────────────────────────────────────────────────────────────┘

Installing build dependencies
Reading package lists...
Building dependency tree...
Reading state information...
The following extra packages will be installed:
  bsdmainutils debhelper devscripts dh-python file gem2deb gettext
  gettext-base groff-base intltool-debian libasprintf0c2 libcroco3 libexpat1
  libffi6 libglib2.0-0 libjs-jquery libmagic1 libncursesw5 libpipeline1
  libpython3-stdlib libpython3.3-minimal libpython3.3-stdlib libruby1.9.1
  libruby2.0 libsqlite3-0 libssl1.0.0 libunistring0 libxml2 libyaml-0-2 man-db
  mime-support po-debconf python3 python3-minimal python3.3 python3.3-minimal
  ruby ruby-addressable ruby-diff-lcs ruby-escape-utils ruby-eventmachine
  ruby-rack ruby-rspec ruby-rspec-core ruby-rspec-expectations
  ruby-rspec-mocks ruby1.9.1 ruby1.9.1-dev ruby2.0 ruby2.0-dev
  rubygems-integration
Suggested packages:
  wamerican wordlist whois vacation dh-make bsd-mailx mailx cvs-buildpackage
  devscripts-el gnuplot libauthen-sasl-perl libfile-desktopentry-perl
  libnet-smtp-ssl-perl libterm-size-perl libyaml-syck-perl mutt ssh-client
  svn-buildpackage w3m gettext-doc groff less www-browser libmail-box-perl
  python3-doc python3-tk python3.3-doc binfmt-support ri ruby-dev
  ruby1.9.1-examples ri1.9.1 graphviz ruby-switch rubygems bundler
Recommended packages:
  at dctrl-tools dput dupload libdistro-info-perl libencode-locale-perl
  libjson-perl libparse-debcontrol-perl liburi-perl libwww-perl lintian
  patchutils python3-debian python3-magic strace unzip wdiff wget curl
  debian-keyring equivs liblwp-protocol-https-perl libsoap-lite-perl autopoint
  libasprintf-dev libgettextpo-dev libglib2.0-data shared-mime-info
  javascript-common xml-core libmail-sendmail-perl
The following NEW packages will be installed:
  bsdmainutils debhelper devscripts dh-python file gem2deb gettext
  gettext-base groff-base intltool-debian libasprintf0c2 libcroco3 libexpat1
  libffi6 libglib2.0-0 libjs-jquery libmagic1 libncursesw5 libpipeline1
  libpython3-stdlib libpython3.3-minimal libpython3.3-stdlib libruby1.9.1
  libruby2.0 libsqlite3-0 libssl1.0.0 libunistring0 libxml2 libyaml-0-2 man-db
  mime-support po-debconf python3 python3-minimal python3.3 python3.3-minimal
  ruby ruby-addressable ruby-diff-lcs ruby-escape-utils ruby-eventmachine
  ruby-rack ruby-rspec ruby-rspec-core ruby-rspec-expectations
  ruby-rspec-mocks ruby1.9.1 ruby1.9.1-dev ruby2.0 ruby2.0-dev
  rubygems-integration sbuild-build-depends-ruby-em-http-request-dummy
0 upgraded, 52 newly installed, 0 to remove and 0 not upgraded.
Need to get 24.4 MB/24.4 MB of archives.
After this operation, 88.6 MB of additional disk space will be used.
Get:1 http://localhost:9999/debian/ unstable/main libncursesw5 amd64 5.9+20130608-1 [141 kB]
Get:2 http://localhost:9999/debian/ unstable/main libpipeline1 amd64 1.2.6-1 [24.8 kB]
Get:3 http://localhost:9999/debian/ unstable/main libssl1.0.0 amd64 1.0.1e-6 [1003 kB]
Get:4 http://localhost:9999/debian/ unstable/main groff-base amd64 1.22.2-3 [747 kB]
Get:5 http://localhost:9999/debian/ unstable/main bsdmainutils amd64 9.0.5 [211 kB]
Get:6 http://localhost:9999/debian/ unstable/main man-db amd64 2.6.5-2 [976 kB]
Get:7 http://localhost:9999/debian/ unstable/main libasprintf0c2 amd64 0.18.3.1-2 [29.1 kB]
Get:8 http://localhost:9999/debian/ unstable/main libmagic1 amd64 1:5.14-2 [216 kB]
Get:9 http://localhost:9999/debian/ unstable/main libsqlite3-0 amd64 3.8.2-1 [403 kB]
Get:10 http://localhost:9999/debian/ unstable/main libxml2 amd64 2.9.1+dfsg1-3 [791 kB]
Get:11 http://localhost:9999/debian/ unstable/main libffi6 amd64 3.0.13-10 [19.3 kB]
Get:12 http://localhost:9999/debian/ unstable/main libglib2.0-0 amd64 2.36.4-1 [2055 kB]
Get:13 http://localhost:9999/debian/ unstable/main libcroco3 amd64 0.6.8-2 [133 kB]
Get:14 http://localhost:9999/debian/ unstable/main libexpat1 amd64 2.1.0-4 [138 kB]
Get:15 http://localhost:9999/debian/ unstable/main libpython3.3-minimal amd64 3.3.3-4 [421 kB]
Get:16 http://localhost:9999/debian/ unstable/main mime-support all 3.54 [36.4 kB]
Get:17 http://localhost:9999/debian/ unstable/main libpython3.3-stdlib amd64 3.3.3-4 [2053 kB]
Get:18 http://localhost:9999/debian/ unstable/main libunistring0 amd64 0.9.3-5 [434 kB]
Get:19 http://localhost:9999/debian/ unstable/main libyaml-0-2 amd64 0.1.4-2 [56.5 kB]
Get:20 http://localhost:9999/debian/ unstable/main python3.3-minimal amd64 3.3.3-4 [1413 kB]
Get:21 http://localhost:9999/debian/ unstable/main file amd64 1:5.14-2 [54.0 kB]
Get:22 http://localhost:9999/debian/ unstable/main gettext-base amd64 0.18.3.1-2 [116 kB]
Get:23 http://localhost:9999/debian/ unstable/main gettext amd64 0.18.3.1-2 [1202 kB]
Get:24 http://localhost:9999/debian/ unstable/main intltool-debian all 0.35.0+20060710.1 [30.8 kB]
Get:25 http://localhost:9999/debian/ unstable/main po-debconf all 1.0.16+nmu2 [224 kB]
Get:26 http://localhost:9999/debian/ unstable/main debhelper all 9.20131213 [687 kB]
Get:27 http://localhost:9999/debian/ unstable/main python3.3 amd64 3.3.3-4 [157 kB]
Get:28 http://localhost:9999/debian/ unstable/main python3-minimal amd64 3.3.2-17 [33.9 kB]
Get:29 http://localhost:9999/debian/ unstable/main libpython3-stdlib amd64 3.3.2-17 [17.6 kB]
Get:30 http://localhost:9999/debian/ unstable/main dh-python all 1.20131021-1 [51.3 kB]
Get:31 http://localhost:9999/debian/ unstable/main python3 amd64 3.3.2-17 [20.5 kB]
Get:32 http://localhost:9999/debian/ unstable/main devscripts amd64 2.13.9 [863 kB]
Get:33 http://localhost:9999/debian/ unstable/main libruby1.9.1 amd64 1.9.3.484-1 [2946 kB]
Get:34 http://localhost:9999/debian/ unstable/main ruby1.9.1 amd64 1.9.3.484-1 [231 kB]
Get:35 http://localhost:9999/debian/ unstable/main ruby all 1:1.9.3 [6484 B]
Get:36 http://localhost:9999/debian/ unstable/main libjs-jquery all 1.7.2+dfsg-3 [96.9 kB]
Get:37 http://localhost:9999/debian/ unstable/main libruby2.0 amd64 2.0.0.353-1 [3083 kB]
Get:38 http://localhost:9999/debian/ unstable/main rubygems-integration all 1.2 [5006 B]
Get:39 http://localhost:9999/debian/ unstable/main ruby2.0 amd64 2.0.0.353-1 [340 kB]
Get:40 http://localhost:9999/debian/ unstable/main ruby1.9.1-dev amd64 1.9.3.484-1 [1064 kB]
Get:41 http://localhost:9999/debian/ unstable/main ruby2.0-dev amd64 2.0.0.353-1 [1180 kB]
Get:42 http://localhost:9999/debian/ unstable/main gem2deb all 0.6.1 [44.4 kB]
Get:43 http://localhost:9999/debian/ unstable/main ruby-addressable all 2.3.4-1 [65.2 kB]
Get:44 http://localhost:9999/debian/ unstable/main ruby-diff-lcs all 1.2.4-1 [26.9 kB]
Get:45 http://localhost:9999/debian/ unstable/main ruby-escape-utils amd64 0.2.4-3 [20.9 kB]
Get:46 http://localhost:9999/debian/ unstable/main ruby-eventmachine amd64 1.0.3-3 [239 kB]
Get:47 http://localhost:9999/debian/ unstable/main ruby-rack all 1.5.2-1 [95.2 kB]
Get:48 http://localhost:9999/debian/ unstable/main ruby-rspec-expectations all 2.14.2-1 [57.6 kB]
Get:49 http://localhost:9999/debian/ unstable/main ruby-rspec-mocks all 2.14.3-1 [52.3 kB]
Get:50 http://localhost:9999/debian/ unstable/main ruby-rspec-core all 2.14.5-1 [112 kB]
Get:51 http://localhost:9999/debian/ unstable/main ruby-rspec all 2.14.1-1 [5804 B]
debconf: delaying package configuration, since apt-utils is not installed
Fetched 24.4 MB in 2s (8301 kB/s)
Selecting previously unselected package libncursesw5:amd64.
(Reading database ... 13937 files and directories currently installed.)
Preparing to unpack .../libncursesw5_5.9+20130608-1_amd64.deb ...
Unpacking libncursesw5:amd64 (5.9+20130608-1) ...
Selecting previously unselected package libpipeline1:amd64.
Preparing to unpack .../libpipeline1_1.2.6-1_amd64.deb ...
Unpacking libpipeline1:amd64 (1.2.6-1) ...
Selecting previously unselected package libssl1.0.0:amd64.
Preparing to unpack .../libssl1.0.0_1.0.1e-6_amd64.deb ...
Unpacking libssl1.0.0:amd64 (1.0.1e-6) ...
Selecting previously unselected package groff-base.
Preparing to unpack .../groff-base_1.22.2-3_amd64.deb ...
Unpacking groff-base (1.22.2-3) ...
Selecting previously unselected package bsdmainutils.
Preparing to unpack .../bsdmainutils_9.0.5_amd64.deb ...
Unpacking bsdmainutils (9.0.5) ...
Selecting previously unselected package man-db.
Preparing to unpack .../man-db_2.6.5-2_amd64.deb ...
Unpacking man-db (2.6.5-2) ...
Selecting previously unselected package libasprintf0c2:amd64.
Preparing to unpack .../libasprintf0c2_0.18.3.1-2_amd64.deb ...
Unpacking libasprintf0c2:amd64 (0.18.3.1-2) ...
Selecting previously unselected package libmagic1:amd64.
Preparing to unpack .../libmagic1_1%3a5.14-2_amd64.deb ...
Unpacking libmagic1:amd64 (1:5.14-2) ...
Selecting previously unselected package libsqlite3-0:amd64.
Preparing to unpack .../libsqlite3-0_3.8.2-1_amd64.deb ...
Unpacking libsqlite3-0:amd64 (3.8.2-1) ...
Selecting previously unselected package libxml2:amd64.
Preparing to unpack .../libxml2_2.9.1+dfsg1-3_amd64.deb ...
Unpacking libxml2:amd64 (2.9.1+dfsg1-3) ...
Selecting previously unselected package libffi6:amd64.
Preparing to unpack .../libffi6_3.0.13-10_amd64.deb ...
Unpacking libffi6:amd64 (3.0.13-10) ...
Selecting previously unselected package libglib2.0-0:amd64.
Preparing to unpack .../libglib2.0-0_2.36.4-1_amd64.deb ...
Unpacking libglib2.0-0:amd64 (2.36.4-1) ...
Selecting previously unselected package libcroco3:amd64.
Preparing to unpack .../libcroco3_0.6.8-2_amd64.deb ...
Unpacking libcroco3:amd64 (0.6.8-2) ...
Selecting previously unselected package libexpat1:amd64.
Preparing to unpack .../libexpat1_2.1.0-4_amd64.deb ...
Unpacking libexpat1:amd64 (2.1.0-4) ...
Selecting previously unselected package libpython3.3-minimal:amd64.
Preparing to unpack .../libpython3.3-minimal_3.3.3-4_amd64.deb ...
Unpacking libpython3.3-minimal:amd64 (3.3.3-4) ...
Selecting previously unselected package mime-support.
Preparing to unpack .../mime-support_3.54_all.deb ...
Unpacking mime-support (3.54) ...
Selecting previously unselected package libpython3.3-stdlib:amd64.
Preparing to unpack .../libpython3.3-stdlib_3.3.3-4_amd64.deb ...
Unpacking libpython3.3-stdlib:amd64 (3.3.3-4) ...
Selecting previously unselected package libunistring0:amd64.
Preparing to unpack .../libunistring0_0.9.3-5_amd64.deb ...
Unpacking libunistring0:amd64 (0.9.3-5) ...
Selecting previously unselected package libyaml-0-2:amd64.
Preparing to unpack .../libyaml-0-2_0.1.4-2_amd64.deb ...
Unpacking libyaml-0-2:amd64 (0.1.4-2) ...
Selecting previously unselected package python3.3-minimal.
Preparing to unpack .../python3.3-minimal_3.3.3-4_amd64.deb ...
Unpacking python3.3-minimal (3.3.3-4) ...
Selecting previously unselected package file.
Preparing to unpack .../file_1%3a5.14-2_amd64.deb ...
Unpacking file (1:5.14-2) ...
Selecting previously unselected package gettext-base.
Preparing to unpack .../gettext-base_0.18.3.1-2_amd64.deb ...
Unpacking gettext-base (0.18.3.1-2) ...
Selecting previously unselected package gettext.
Preparing to unpack .../gettext_0.18.3.1-2_amd64.deb ...
Unpacking gettext (0.18.3.1-2) ...
Selecting previously unselected package intltool-debian.
Preparing to unpack .../intltool-debian_0.35.0+20060710.1_all.deb ...
Unpacking intltool-debian (0.35.0+20060710.1) ...
Selecting previously unselected package po-debconf.
Preparing to unpack .../po-debconf_1.0.16+nmu2_all.deb ...
Unpacking po-debconf (1.0.16+nmu2) ...
Selecting previously unselected package debhelper.
Preparing to unpack .../debhelper_9.20131213_all.deb ...
Unpacking debhelper (9.20131213) ...
Selecting previously unselected package python3.3.
Preparing to unpack .../python3.3_3.3.3-4_amd64.deb ...
Unpacking python3.3 (3.3.3-4) ...
Selecting previously unselected package python3-minimal.
Preparing to unpack .../python3-minimal_3.3.2-17_amd64.deb ...
Unpacking python3-minimal (3.3.2-17) ...
Selecting previously unselected package libpython3-stdlib:amd64.
Preparing to unpack .../libpython3-stdlib_3.3.2-17_amd64.deb ...
Unpacking libpython3-stdlib:amd64 (3.3.2-17) ...
Selecting previously unselected package dh-python.
Preparing to unpack .../dh-python_1.20131021-1_all.deb ...
Unpacking dh-python (1.20131021-1) ...
Selecting previously unselected package python3.
Preparing to unpack .../python3_3.3.2-17_amd64.deb ...
Unpacking python3 (3.3.2-17) ...
Selecting previously unselected package devscripts.
Preparing to unpack .../devscripts_2.13.9_amd64.deb ...
Unpacking devscripts (2.13.9) ...
Selecting previously unselected package libruby1.9.1.
Preparing to unpack .../libruby1.9.1_1.9.3.484-1_amd64.deb ...
Unpacking libruby1.9.1 (1.9.3.484-1) ...
Selecting previously unselected package ruby1.9.1.
Preparing to unpack .../ruby1.9.1_1.9.3.484-1_amd64.deb ...
Unpacking ruby1.9.1 (1.9.3.484-1) ...
Selecting previously unselected package ruby.
Preparing to unpack .../ruby_1%3a1.9.3_all.deb ...
Unpacking ruby (1:1.9.3) ...
Selecting previously unselected package libjs-jquery.
Preparing to unpack .../libjs-jquery_1.7.2+dfsg-3_all.deb ...
Unpacking libjs-jquery (1.7.2+dfsg-3) ...
Selecting previously unselected package libruby2.0:amd64.
Preparing to unpack .../libruby2.0_2.0.0.353-1_amd64.deb ...
Unpacking libruby2.0:amd64 (2.0.0.353-1) ...
Selecting previously unselected package rubygems-integration.
Preparing to unpack .../rubygems-integration_1.2_all.deb ...
Unpacking rubygems-integration (1.2) ...
Selecting previously unselected package ruby2.0.
Preparing to unpack .../ruby2.0_2.0.0.353-1_amd64.deb ...
Unpacking ruby2.0 (2.0.0.353-1) ...
Selecting previously unselected package ruby1.9.1-dev.
Preparing to unpack .../ruby1.9.1-dev_1.9.3.484-1_amd64.deb ...
Unpacking ruby1.9.1-dev (1.9.3.484-1) ...
Selecting previously unselected package ruby2.0-dev:amd64.
Preparing to unpack .../ruby2.0-dev_2.0.0.353-1_amd64.deb ...
Unpacking ruby2.0-dev:amd64 (2.0.0.353-1) ...
Selecting previously unselected package gem2deb.
Preparing to unpack .../archives/gem2deb_0.6.1_all.deb ...
Unpacking gem2deb (0.6.1) ...
Selecting previously unselected package ruby-addressable.
Preparing to unpack .../ruby-addressable_2.3.4-1_all.deb ...
Unpacking ruby-addressable (2.3.4-1) ...
Selecting previously unselected package ruby-diff-lcs.
Preparing to unpack .../ruby-diff-lcs_1.2.4-1_all.deb ...
Unpacking ruby-diff-lcs (1.2.4-1) ...
Selecting previously unselected package ruby-escape-utils.
Preparing to unpack .../ruby-escape-utils_0.2.4-3_amd64.deb ...
Unpacking ruby-escape-utils (0.2.4-3) ...
Selecting previously unselected package ruby-eventmachine.
Preparing to unpack .../ruby-eventmachine_1.0.3-3_amd64.deb ...
Unpacking ruby-eventmachine (1.0.3-3) ...
Selecting previously unselected package ruby-rack.
Preparing to unpack .../ruby-rack_1.5.2-1_all.deb ...
Unpacking ruby-rack (1.5.2-1) ...
Selecting previously unselected package ruby-rspec-expectations.
Preparing to unpack .../ruby-rspec-expectations_2.14.2-1_all.deb ...
Unpacking ruby-rspec-expectations (2.14.2-1) ...
Selecting previously unselected package ruby-rspec-mocks.
Preparing to unpack .../ruby-rspec-mocks_2.14.3-1_all.deb ...
Unpacking ruby-rspec-mocks (2.14.3-1) ...
Selecting previously unselected package ruby-rspec-core.
Preparing to unpack .../ruby-rspec-core_2.14.5-1_all.deb ...
Unpacking ruby-rspec-core (2.14.5-1) ...
Selecting previously unselected package ruby-rspec.
Preparing to unpack .../ruby-rspec_2.14.1-1_all.deb ...
Unpacking ruby-rspec (2.14.1-1) ...
Selecting previously unselected package sbuild-build-depends-ruby-em-http-request-dummy.
Preparing to unpack .../sbuild-build-depends-ruby-em-http-request-dummy.deb ...
Unpacking sbuild-build-depends-ruby-em-http-request-dummy (0.invalid.0) ...
Setting up libncursesw5:amd64 (5.9+20130608-1) ...
Setting up libpipeline1:amd64 (1.2.6-1) ...
Setting up libssl1.0.0:amd64 (1.0.1e-6) ...
Setting up groff-base (1.22.2-3) ...
Setting up bsdmainutils (9.0.5) ...
update-alternatives: using /usr/bin/bsd-write to provide /usr/bin/write (write) in auto mode
update-alternatives: using /usr/bin/bsd-from to provide /usr/bin/from (from) in auto mode
Setting up man-db (2.6.5-2) ...
Not building database; man-db/auto-update is not 'true'.
Setting up libasprintf0c2:amd64 (0.18.3.1-2) ...
Setting up libmagic1:amd64 (1:5.14-2) ...
Setting up libsqlite3-0:amd64 (3.8.2-1) ...
Setting up libxml2:amd64 (2.9.1+dfsg1-3) ...
Setting up libffi6:amd64 (3.0.13-10) ...
Setting up libglib2.0-0:amd64 (2.36.4-1) ...
No schema files found: doing nothing.
Setting up libcroco3:amd64 (0.6.8-2) ...
Setting up libexpat1:amd64 (2.1.0-4) ...
Setting up libpython3.3-minimal:amd64 (3.3.3-4) ...
Setting up mime-support (3.54) ...
Setting up libpython3.3-stdlib:amd64 (3.3.3-4) ...
Setting up libunistring0:amd64 (0.9.3-5) ...
Setting up libyaml-0-2:amd64 (0.1.4-2) ...
Setting up python3.3-minimal (3.3.3-4) ...
Setting up file (1:5.14-2) ...
Setting up gettext-base (0.18.3.1-2) ...
Setting up gettext (0.18.3.1-2) ...
Setting up intltool-debian (0.35.0+20060710.1) ...
Setting up po-debconf (1.0.16+nmu2) ...
Setting up debhelper (9.20131213) ...
Setting up python3.3 (3.3.3-4) ...
Setting up python3-minimal (3.3.2-17) ...
Setting up libpython3-stdlib:amd64 (3.3.2-17) ...
Setting up libruby1.9.1 (1.9.3.484-1) ...
Setting up ruby1.9.1 (1.9.3.484-1) ...
update-alternatives: using /usr/bin/gem1.9.1 to provide /usr/bin/gem (gem) in auto mode
update-alternatives: using /usr/bin/ruby1.9.1 to provide /usr/bin/ruby (ruby) in auto mode
Setting up ruby (1:1.9.3) ...
Setting up libjs-jquery (1.7.2+dfsg-3) ...
Setting up libruby2.0:amd64 (2.0.0.353-1) ...
Setting up rubygems-integration (1.2) ...
Setting up ruby2.0 (2.0.0.353-1) ...
Setting up ruby1.9.1-dev (1.9.3.484-1) ...
Setting up ruby2.0-dev:amd64 (2.0.0.353-1) ...
Setting up ruby-addressable (2.3.4-1) ...
Setting up ruby-diff-lcs (1.2.4-1) ...
Setting up ruby-escape-utils (0.2.4-3) ...
Setting up ruby-eventmachine (1.0.3-3) ...
Setting up ruby-rack (1.5.2-1) ...
Setting up ruby-rspec-expectations (2.14.2-1) ...
Setting up ruby-rspec-mocks (2.14.3-1) ...
Setting up ruby-rspec-core (2.14.5-1) ...
Setting up ruby-rspec (2.14.1-1) ...
Setting up dh-python (1.20131021-1) ...
Setting up python3 (3.3.2-17) ...
Setting up devscripts (2.13.9) ...
Setting up gem2deb (0.6.1) ...
Setting up sbuild-build-depends-ruby-em-http-request-dummy (0.invalid.0) ...
Processing triggers for libc-bin (2.17-97) ...

┌──────────────────────────────────────────────────────────────────────────────┐
│ Build environment                                                            │
└──────────────────────────────────────────────────────────────────────────────┘

Kernel: Linux 2.6.32-5-xen-amd64 amd64 (x86_64)
Toolchain package versions: binutils_2.24-2 dpkg-dev_1.17.5 g++-4.6_4.6.4-5 g++-4.8_4.8.2-10 gcc-4.6_4.6.4-5 gcc-4.7_4.7.3-9 gcc-4.8_4.8.2-10 libc6-dev_2.17-97 libstdc++-4.8-dev_4.8.2-10 libstdc++6_4.8.2-10 libstdc++6-4.6-dev_4.6.4-5 linux-libc-dev_3.12.6-1
Package versions: apt_0.9.14.1 base-files_7.2 base-passwd_3.5.28 bash_4.2+dfsg-1 binutils_2.24-2 bsdmainutils_9.0.5 bsdutils_1:2.20.1-5.5 build-essential_11.6 bzip2_1.0.6-5 coreutils_8.21-1 cpp_4:4.8.2-1 cpp-4.6_4.6.4-5 cpp-4.7_4.7.3-9 cpp-4.8_4.8.2-10 dash_0.5.7-3 debconf_1.5.52 debconf-i18n_1.5.52 debfoster_2.7-1.2 debhelper_9.20131213 debian-archive-keyring_2012.4 debianutils_4.4 devscripts_2.13.9 dh-python_1.20131021-1 diffutils_1:3.3-1 dpkg_1.17.5 dpkg-dev_1.17.5 e2fslibs_1.42.8-1 e2fsprogs_1.42.8-1 fakeroot_1.20-3 file_1:5.14-2 findutils_4.4.2-7 g++_4:4.8.2-1 g++-4.6_4.6.4-5 g++-4.8_4.8.2-10 gcc_4:4.8.2-1 gcc-4.4-base_4.4.7-6 gcc-4.5-base_4.5.4-1 gcc-4.6_4.6.4-5 gcc-4.6-base_4.6.4-5 gcc-4.7_4.7.3-9 gcc-4.7-base_4.7.3-9 gcc-4.8_4.8.2-10 gcc-4.8-base_4.8.2-10 gem2deb_0.6.1 gettext_0.18.3.1-2 gettext-base_0.18.3.1-2 gnupg_1.4.15-3 gpgv_1.4.15-3 grep_2.15-2 groff-base_1.22.2-3 gzip_1.6-3 hostname_3.15 initscripts_2.88dsf-43 insserv_1.14.0-5 intltool-debian_0.35.0+20060710.1 libacl1_2.2.52-1 libapt-pkg4.12_0.9.14.1 libarchive-extract-perl_0.68-1 libasan0_4.8.2-10 libasprintf0c2_0.18.3.1-2 libatomic1_4.8.2-10 libattr1_1:2.4.47-1 libaudit-common_1:2.3.2-2 libaudit1_1:2.3.2-2 libblkid1_2.20.1-5.5 libbz2-1.0_1.0.6-5 libc-bin_2.17-97 libc-dev-bin_2.17-97 libc6_2.17-97 libc6-dev_2.17-97 libcap2_1:2.22-1.2 libclass-isa-perl_0.36-5 libcloog-isl4_0.18.1-3 libcloog-ppl1_0.16.1-4 libcomerr2_1.42.8-1 libcroco3_0.6.8-2 libdb5.1_5.1.29-7 libdpkg-perl_1.17.5 libexpat1_2.1.0-4 libfakeroot_1.20-3 libffi6_3.0.13-10 libfile-fcntllock-perl_0.14-2+b1 libgc1c2_1:7.2d-6 libgcc-4.7-dev_4.7.3-9 libgcc-4.8-dev_4.8.2-10 libgcc1_1:4.8.2-10 libgdbm3_1.8.3-12 libglib2.0-0_2.36.4-1 libgmp10_2:5.1.3+dfsg-1 libgmpxx4ldbl_2:5.1.3+dfsg-1 libgomp1_4.8.2-10 libgpm2_1.20.4-6.1 libisl10_0.12.1-2 libitm1_4.8.2-10 libjs-jquery_1.7.2+dfsg-3 liblocale-gettext-perl_1.05-7+b2 liblog-message-simple-perl_0.10-1 liblzma5_5.1.1alpha+20120614-2 libmagic1_1:5.14-2 libmodule-pluggable-perl_4.8-1 libmount1_2.20.1-5.5 libmpc2_0.9-4 libmpc3_1.0.1-1 libmpfr4_3.1.2-1 libncurses5_5.9+20130608-1 libncursesw5_5.9+20130608-1 libpam-modules_1.1.3-10 libpam-modules-bin_1.1.3-10 libpam-runtime_1.1.3-10 libpam0g_1.1.3-10 libpcre3_1:8.31-2 libpipeline1_1.2.6-1 libpod-latex-perl_0.61-1 libppl-c4_1:1.0-7 libppl12_1:1.0-7 libpython3-stdlib_3.3.2-17 libpython3.3-minimal_3.3.3-4 libpython3.3-stdlib_3.3.3-4 libquadmath0_4.8.2-10 libreadline6_6.2+dfsg-0.1 libruby1.9.1_1.9.3.484-1 libruby2.0_2.0.0.353-1 libselinux1_2.2.1-1 libsemanage-common_2.2-1 libsemanage1_2.2-1 libsepol1_2.2-1 libslang2_2.2.4-16 libsqlite3-0_3.8.2-1 libss2_1.42.8-1 libssl1.0.0_1.0.1e-6 libstdc++-4.8-dev_4.8.2-10 libstdc++6_4.8.2-10 libstdc++6-4.6-dev_4.6.4-5 libswitch-perl_2.16-2 libterm-ui-perl_0.38-1 libtext-charwidth-perl_0.04-7+b2 libtext-iconv-perl_1.7-5+b1 libtext-soundex-perl_3.4-1+b1 libtext-wrapi18n-perl_0.06-7 libtimedate-perl_2.3000-1 libtinfo5_5.9+20130608-1 libtsan0_4.8.2-10 libunistring0_0.9.3-5 libusb-0.1-4_2:0.1.12-23.3 libustr-1.0-1_1.0.4-3 libuuid1_2.20.1-5.5 libxml2_2.9.1+dfsg1-3 libyaml-0-2_0.1.4-2 linux-libc-dev_3.12.6-1 login_1:4.1.5.1-1 lsb-base_4.1+Debian12 make_3.81-8.3 man-db_2.6.5-2 mawk_1.3.3-17 mime-support_3.54 mount_2.20.1-5.5 multiarch-support_2.17-97 ncurses-base_5.9+20130608-1 ncurses-bin_5.9+20130608-1 passwd_1:4.1.5.1-1 patch_2.7.1-4 perl_5.18.1-5 perl-base_5.18.1-5 perl-modules_5.18.1-5 po-debconf_1.0.16+nmu2 python3_3.3.2-17 python3-minimal_3.3.2-17 python3.3_3.3.3-4 python3.3-minimal_3.3.3-4 readline-common_6.2+dfsg-0.1 ruby_1:1.9.3 ruby-addressable_2.3.4-1 ruby-diff-lcs_1.2.4-1 ruby-escape-utils_0.2.4-3 ruby-eventmachine_1.0.3-3 ruby-rack_1.5.2-1 ruby-rspec_2.14.1-1 ruby-rspec-core_2.14.5-1 ruby-rspec-expectations_2.14.2-1 ruby-rspec-mocks_2.14.3-1 ruby1.9.1_1.9.3.484-1 ruby1.9.1-dev_1.9.3.484-1 ruby2.0_2.0.0.353-1 ruby2.0-dev_2.0.0.353-1 rubygems-integration_1.2 sbuild-build-depends-core-dummy_0.invalid.0 sbuild-build-depends-ruby-em-http-request-dummy_0.invalid.0 sed_4.2.2-3 sensible-utils_0.0.9 sudo_1.8.8-2 sysv-rc_2.88dsf-43 sysvinit_2.88dsf-43 sysvinit-utils_2.88dsf-43 tar_1.27-4 tzdata_2013i-1 ucf_3.0027+nmu1 util-linux_2.20.1-5.5 vim_2:7.4.052-1 vim-common_2:7.4.052-1 vim-runtime_2:7.4.052-1 xz-utils_5.1.1alpha+20120614-2 zlib1g_1:1.2.8.dfsg-1

┌──────────────────────────────────────────────────────────────────────────────┐
│ Build                                                                        │
└──────────────────────────────────────────────────────────────────────────────┘


Unpack source
─────────────

gpgv: keyblock resource `/sbuild-nonexistent/.gnupg/trustedkeys.gpg': file open error
gpgv: Signature made Fri Jun 29 10:45:18 2012 UTC using RSA key ID CA19D717
gpgv: Can't check signature: public key not found
dpkg-source: warning: failed to verify signature on ./ruby-em-http-request_0.3.0-1.dsc
dpkg-source: info: extracting ruby-em-http-request in ruby-em-http-request-0.3.0
dpkg-source: info: unpacking ruby-em-http-request_0.3.0.orig.tar.gz
dpkg-source: info: unpacking ruby-em-http-request_0.3.0-1.debian.tar.gz
dpkg-source: info: applying disable_rubygems
dpkg-source: info: applying spec_adjust_require

Check disc space
────────────────

Sufficient free space for build

User Environment
────────────────

HOME=/sbuild-nonexistent
LOGNAME=user
PATH=/usr/local/sbin:/usr/local/bin:/usr/sbin:/usr/bin:/sbin:/bin:/usr/games
SCHROOT_ALIAS_NAME=unstable-amd64-sbuild
SCHROOT_CHROOT_NAME=unstable-amd64-sbuild
SCHROOT_COMMAND=env
SCHROOT_GID=1000
SCHROOT_GROUP=user
SCHROOT_SESSION_ID=unstable-amd64-sbuild-feb781d9-8255-421a-9283-8933c4bfe4ae
SCHROOT_UID=1000
SCHROOT_USER=user
SHELL=/bin/sh
USER=user

dpkg-buildpackage
─────────────────

dpkg-buildpackage: source package ruby-em-http-request
dpkg-buildpackage: source version 0.3.0-1
dpkg-buildpackage: source distribution unstable
dpkg-buildpackage: source changed by Tollef Fog Heen <tfheen@debian.org>
 dpkg-source --before-build ruby-em-http-request-0.3.0
dpkg-buildpackage: host architecture amd64
 fakeroot debian/rules clean
dh clean --buildsystem=ruby --with ruby
   dh_testdir -O--buildsystem=ruby
   dh_auto_clean -O--buildsystem=ruby
/usr/lib/ruby/vendor_ruby/gem2deb.rb:17: warning: setting Encoding.default_external
/usr/lib/ruby/1.9.1/rubygems/psych_tree.rb:31: warning: method redefined; discarding old visit_String
/usr/lib/ruby/1.9.1/rubygems/psych_tree.rb:4: warning: previous definition of visit_String was here
/usr/lib/ruby/1.9.1/rubygems/psych_tree.rb:39: warning: method redefined; discarding old register
/usr/lib/ruby/1.9.1/rubygems/psych_tree.rb:12: warning: previous definition of register was here
/usr/lib/ruby/1.9.1/rubygems/psych_tree.rb:43: warning: method redefined; discarding old format_time
/usr/lib/ruby/1.9.1/rubygems/psych_tree.rb:16: warning: previous definition of format_time was here
/usr/lib/ruby/1.9.1/rubygems/syck_hack.rb:115: warning: method redefined; discarding old to_s
/usr/lib/ruby/1.9.1/rubygems/syck_hack.rb:44: warning: previous definition of to_s was here
  Entering dh_ruby --clean
  Leaving dh_ruby --clean
   dh_clean -O--buildsystem=ruby
 dpkg-source -b ruby-em-http-request-0.3.0
dpkg-source: info: using source format `3.0 (quilt)'
dpkg-source: info: building ruby-em-http-request using existing ./ruby-em-http-request_0.3.0.orig.tar.gz
dpkg-source: info: building ruby-em-http-request in ruby-em-http-request_0.3.0-1.debian.tar.gz
dpkg-source: info: building ruby-em-http-request in ruby-em-http-request_0.3.0-1.dsc
 debian/rules build
dh build --buildsystem=ruby --with ruby
   dh_testdir -O--buildsystem=ruby
   dh_auto_configure -O--buildsystem=ruby
/usr/lib/ruby/vendor_ruby/gem2deb.rb:17: warning: setting Encoding.default_external
   dh_auto_build -O--buildsystem=ruby
/usr/lib/ruby/vendor_ruby/gem2deb.rb:17: warning: setting Encoding.default_external
   dh_auto_test -O--buildsystem=ruby
/usr/lib/ruby/vendor_ruby/gem2deb.rb:17: warning: setting Encoding.default_external
 fakeroot debian/rules binary
dh binary --buildsystem=ruby --with ruby
   dh_testroot -O--buildsystem=ruby
   dh_prep -O--buildsystem=ruby
   dh_auto_install -O--buildsystem=ruby
/usr/lib/ruby/vendor_ruby/gem2deb.rb:17: warning: setting Encoding.default_external
/usr/lib/ruby/1.9.1/rubygems/psych_tree.rb:31: warning: method redefined; discarding old visit_String
/usr/lib/ruby/1.9.1/rubygems/psych_tree.rb:4: warning: previous definition of visit_String was here
/usr/lib/ruby/1.9.1/rubygems/psych_tree.rb:39: warning: method redefined; discarding old register
/usr/lib/ruby/1.9.1/rubygems/psych_tree.rb:12: warning: previous definition of register was here
/usr/lib/ruby/1.9.1/rubygems/psych_tree.rb:43: warning: method redefined; discarding old format_time
/usr/lib/ruby/1.9.1/rubygems/psych_tree.rb:16: warning: previous definition of format_time was here
/usr/lib/ruby/1.9.1/rubygems/syck_hack.rb:115: warning: method redefined; discarding old to_s
/usr/lib/ruby/1.9.1/rubygems/syck_hack.rb:44: warning: previous definition of to_s was here
  Entering dh_ruby --install
install -d /«PKGBUILDDIR»/debian/ruby-em-http-request/usr/lib/ruby/vendor_ruby
install -D -m644 /«PKGBUILDDIR»/lib/em-http/http_header.rb /«PKGBUILDDIR»/debian/ruby-em-http-request/usr/lib/ruby/vendor_ruby/em-http/http_header.rb
install -D -m644 /«PKGBUILDDIR»/lib/em-http/core_ext/bytesize.rb /«PKGBUILDDIR»/debian/ruby-em-http-request/usr/lib/ruby/vendor_ruby/em-http/core_ext/bytesize.rb
install -D -m644 /«PKGBUILDDIR»/lib/em-http/request.rb /«PKGBUILDDIR»/debian/ruby-em-http-request/usr/lib/ruby/vendor_ruby/em-http/request.rb
install -D -m644 /«PKGBUILDDIR»/lib/em-http/mock.rb /«PKGBUILDDIR»/debian/ruby-em-http-request/usr/lib/ruby/vendor_ruby/em-http/mock.rb
install -D -m644 /«PKGBUILDDIR»/lib/em-http/client.rb /«PKGBUILDDIR»/debian/ruby-em-http-request/usr/lib/ruby/vendor_ruby/em-http/client.rb
install -D -m644 /«PKGBUILDDIR»/lib/em-http/version.rb /«PKGBUILDDIR»/debian/ruby-em-http-request/usr/lib/ruby/vendor_ruby/em-http/version.rb
install -D -m644 /«PKGBUILDDIR»/lib/em-http/multi.rb /«PKGBUILDDIR»/debian/ruby-em-http-request/usr/lib/ruby/vendor_ruby/em-http/multi.rb
install -D -m644 /«PKGBUILDDIR»/lib/em-http/http_encoding.rb /«PKGBUILDDIR»/debian/ruby-em-http-request/usr/lib/ruby/vendor_ruby/em-http/http_encoding.rb
install -D -m644 /«PKGBUILDDIR»/lib/em-http/decoders.rb /«PKGBUILDDIR»/debian/ruby-em-http-request/usr/lib/ruby/vendor_ruby/em-http/decoders.rb
install -D -m644 /«PKGBUILDDIR»/lib/em-http/http_options.rb /«PKGBUILDDIR»/debian/ruby-em-http-request/usr/lib/ruby/vendor_ruby/em-http/http_options.rb
install -D -m644 /«PKGBUILDDIR»/lib/em-http.rb /«PKGBUILDDIR»/debian/ruby-em-http-request/usr/lib/ruby/vendor_ruby/em-http.rb
install -D -m644 /«PKGBUILDDIR»/lib/em-http-request.rb /«PKGBUILDDIR»/debian/ruby-em-http-request/usr/lib/ruby/vendor_ruby/em-http-request.rb
Building extension for ruby1.9.1 ...
/usr/bin/ruby1.9.1 -I/usr/lib/ruby/vendor_ruby /usr/lib/ruby/vendor_ruby/gem2deb/extension_builder.rb /«PKGBUILDDIR» debian/ruby-em-http-request
/usr/bin/ruby1.9.1 extconf.rb
checking for rb_thread_blocking_region()... yes
checking for rb_str_set_len()... yes
checking for sys/select.h... yes
checking for poll.h... yes
checking for sys/epoll.h... yes
checking for sys/event.h... no
checking for port.h... no
checking for openssl/ssl.h... no
creating Makefile
make
make[1]: Entering directory `/«PKGBUILDDIR»/ext/buffer'
compiling em_buffer.c
In file included from em_buffer.c:8:0:
/usr/include/ruby-1.9.1/ruby/backward/rubyio.h:2:2: warning: #warning use "ruby/io.h" instead of "rubyio.h" [-Wcpp]
 #warning use "ruby/io.h" instead of "rubyio.h"
  ^
em_buffer.c: In function 'buffer_clear':
em_buffer.c:358:23: warning: unused variable 'tmp' [-Wunused-variable]
   struct buffer_node *tmp;
                       ^
em_buffer.c: In function 'buffer_gc':
em_buffer.c:389:23: warning: unused variable 'cur' [-Wunused-variable]
   struct buffer_node *cur, *tmp;
                       ^
em_buffer.c: In function 'buffer_write_to':
em_buffer.c:574:5: warning: implicit declaration of function 'write' [-Wimplicit-function-declaration]
     bytes_written = write(fd, buf->head->data + buf->head->start, buf->head->end - buf->head->start);
     ^
em_buffer.c: In function 'buffer_read_from':
em_buffer.c:619:5: warning: implicit declaration of function 'read' [-Wimplicit-function-declaration]
     bytes_read = read(fd, buf->tail->data + buf->tail->end, nbytes);
     ^
em_buffer.c: At top level:
em_buffer.c:568:12: warning: 'buffer_write_to' defined but not used [-Wunused-function]
 static int buffer_write_to(struct buffer *buf, int fd)
            ^
linking shared-object em_buffer.so
make[1]: Leaving directory `/«PKGBUILDDIR»/ext/buffer'
make install
make[1]: Entering directory `/«PKGBUILDDIR»/ext/buffer'
/usr/bin/install -c -m 0755 em_buffer.so /«PKGBUILDDIR»/debian/ruby-em-http-request/usr/lib/ruby/vendor_ruby/1.9.1/x86_64-linux
installing default em_buffer libraries
make[1]: Leaving directory `/«PKGBUILDDIR»/ext/buffer'
/usr/bin/ruby1.9.1 extconf.rb
checking for main() in -lc... yes
creating Makefile
make
make[1]: Entering directory `/«PKGBUILDDIR»/ext/http11_client'
compiling http11_parser.c
compiling http11_client.c
linking shared-object http11_client.so
make[1]: Leaving directory `/«PKGBUILDDIR»/ext/http11_client'
make install
make[1]: Entering directory `/«PKGBUILDDIR»/ext/http11_client'
/usr/bin/install -c -m 0755 http11_client.so /«PKGBUILDDIR»/debian/ruby-em-http-request/usr/lib/ruby/vendor_ruby/1.9.1/x86_64-linux
installing default http11_client libraries
make[1]: Leaving directory `/«PKGBUILDDIR»/ext/http11_client'
/usr/bin/ruby1.9.1 -I/usr/lib/ruby/vendor_ruby /usr/lib/ruby/vendor_ruby/gem2deb/test_runner.rb
/usr/lib/ruby/1.9.1/rubygems/custom_require.rb:36:in `require': cannot load such file -- stallion (LoadError)
	from /usr/lib/ruby/1.9.1/rubygems/custom_require.rb:36:in `require'
	from /«PKGBUILDDIR»/spec/multi_spec.rb:2:in `<top (required)>'
	from /usr/lib/ruby/1.9.1/rubygems/custom_require.rb:36:in `require'
	from /usr/lib/ruby/1.9.1/rubygems/custom_require.rb:36:in `require'
	from -e:1:in `block in <main>'
	from -e:1:in `each'
	from -e:1:in `<main>'
ERROR: Test "ruby1.9.1" failed. Exiting.
dh_auto_install: dh_ruby --install /«PKGBUILDDIR»/debian/ruby-em-http-request returned exit code 1
make: *** [binary] Error 1
dpkg-buildpackage: error: fakeroot debian/rules binary gave error exit status 2
────────────────────────────────────────────────────────────────────────────────
Build finished at 20131227-0321

Finished
────────

E: Build failure (dpkg-buildpackage died)

┌──────────────────────────────────────────────────────────────────────────────┐
│ Cleanup                                                                      │
└──────────────────────────────────────────────────────────────────────────────┘

Purging /«BUILDDIR»
Not cleaning session: cloned chroot in use

┌──────────────────────────────────────────────────────────────────────────────┐
│ Summary                                                                      │
└──────────────────────────────────────────────────────────────────────────────┘

Build Architecture: amd64
Build-Space: 792
Build-Time: 6
Distribution: unstable
Fail-Stage: build
Host Architecture: amd64
Install-Time: 20
Job: ruby-em-http-request_0.3.0-1
Machine Architecture: amd64
Package: ruby-em-http-request
Package-Time: 49
Source-Version: 0.3.0-1
Space: 792
Status: attempted
Version: 0.3.0-1
────────────────────────────────────────────────────────────────────────────────
Finished at 20131227-0321
Build needed 00:00:49, 792k disc space
DC-Status: Failed 50.295033312s
